simulation/qsim/nibble.msim.vcd
$comment
	File created using the following command:
		vcd file nibble.msim.vcd -direction
$end
$date
	Fri Nov 18 00:39:36 2016
$end
$version
	ModelSim Version 10.4d
$end
$timescale
	1ps
$end

$scope module main_vlg_vec_tst $end
$var reg 1 ! clk $end
$var reg 1 " clrn $end
$var wire 1 # out [7] $end
$var wire 1 $ out [6] $end
$var wire 1 % out [5] $end
$var wire 1 & out [4] $end
$var wire 1 ' out [3] $end
$var wire 1 ( out [2] $end
$var wire 1 ) out [1] $end
$var wire 1 * out [0] $end

$scope module i1 $end
$var wire 1 + gnd $end
$var wire 1 , vcc $end
$var wire 1 - unknown $end
$var tri1 1 . devclrn $end
$var tri1 1 / devpor $end
$var tri1 1 0 devoe $end
$var wire 1 1 out[0]~output_o $end
$var wire 1 2 out[1]~output_o $end
$var wire 1 3 out[2]~output_o $end
$var wire 1 4 out[3]~output_o $end
$var wire 1 5 out[4]~output_o $end
$var wire 1 6 out[5]~output_o $end
$var wire 1 7 out[6]~output_o $end
$var wire 1 8 out[7]~output_o $end
$var wire 1 9 clk~input_o $end
$var wire 1 : center|Mux0~0_combout $end
$var wire 1 ; clrn~input_o $end
$var wire 1 < center|WideOr1~0_combout $end
$var wire 1 = center|state[2]~0_combout $end
$var wire 1 > PC|Data_out[0]~1_combout $end
$var wire 1 ? PC|Data_out[1]~2_combout $end
$var wire 1 @ PC|Data_out[2]~3_combout $end
$var wire 1 A PC|Data_out[3]~4_combout $end
$var wire 1 B PC|Data_out[4]~0_combout $end
$var wire 1 C rom|rom~0_combout $end
$var wire 1 D reg_R|Data_out[0]~0_combout $end
$var wire 1 E out[0]~reg0_q $end
$var wire 1 F PC|Data_out [4] $end
$var wire 1 G PC|Data_out [3] $end
$var wire 1 H PC|Data_out [2] $end
$var wire 1 I PC|Data_out [1] $end
$var wire 1 J PC|Data_out [0] $end
$var wire 1 K rom|q [23] $end
$var wire 1 L rom|q [22] $end
$var wire 1 M rom|q [21] $end
$var wire 1 N rom|q [20] $end
$var wire 1 O rom|q [19] $end
$var wire 1 P rom|q [18] $end
$var wire 1 Q rom|q [17] $end
$var wire 1 R rom|q [16] $end
$var wire 1 S rom|q [15] $end
$var wire 1 T rom|q [14] $end
$var wire 1 U rom|q [13] $end
$var wire 1 V rom|q [12] $end
$var wire 1 W rom|q [11] $end
$var wire 1 X rom|q [10] $end
$var wire 1 Y rom|q [9] $end
$var wire 1 Z rom|q [8] $end
$var wire 1 [ rom|q [7] $end
$var wire 1 \ rom|q [6] $end
$var wire 1 ] rom|q [5] $end
$var wire 1 ^ rom|q [4] $end
$var wire 1 _ rom|q [3] $end
$var wire 1 ` rom|q [2] $end
$var wire 1 a rom|q [1] $end
$var wire 1 b rom|q [0] $end
$var wire 1 c center|state [2] $end
$var wire 1 d center|state [1] $end
$var wire 1 e center|state [0] $end
$var wire 1 f reg_R|Data_out [7] $end
$var wire 1 g reg_R|Data_out [6] $end
$var wire 1 h reg_R|Data_out [5] $end
$var wire 1 i reg_R|Data_out [4] $end
$var wire 1 j reg_R|Data_out [3] $end
$var wire 1 k reg_R|Data_out [2] $end
$var wire 1 l reg_R|Data_out [1] $end
$var wire 1 m reg_R|Data_out [0] $end
$upscope $end
$upscope $end
$enddefinitions $end
#0
$dumpvars
0!
1"
0*
0)
0(
0'
0&
0%
0$
0#
0+
1,
x-
1.
1/
10
01
02
03
04
05
06
07
08
09
1:
1;
0<
0=
1>
0?
0@
0A
0B
1C
0D
0E
0J
0I
0H
0G
0F
zb
za
z`
z_
z^
z]
z\
z[
0Z
zY
zX
zW
zV
zU
zT
zS
zR
zQ
zP
zO
zN
zM
zL
zK
0e
0d
0c
0m
zl
zk
zj
zi
zh
zg
zf
$end
#5000
1!
19
#10000
0!
09
1Z
#15000
1!
19
#20000
0!
09
#25000
1!
19
#30000
0!
09
#35000
1!
19
#40000
0!
09
#45000
1!
19
#50000
0!
09
#55000
1!
19
#60000
0"
0!
0;
09
1e
1J
0C
1?
0>
1<
0:
#65000
1!
19
#70000
0!
09
0e
1d
0J
1I
0Z
1C
1>
1:
#75000
1!
19
#80000
0!
09
1e
1J
1Z
1@
0?
0>
1=
0<
#85000
1!
19
#90000
0!
09
0d
1c
0J
0I
1H
1D
1<
0:
#95000
1!
19
1m
#100000
0!
09
0e
1d
1E
11
1*
1:
#105000
1!
19
#110000
0!
09
1e
0=
#115000
1!
19
#120000
0!
09
0c
1>
1=
0<
#125000
1!
19
#130000
0!
09
0d
1c
1J
1<
0:
#135000
1!
19
#140000
0!
09
0e
1d
1:
#145000
1!
19
#150000
0!
09
1e
0=
#155000
1!
19
#160000
0!
09
0c
1?
0>
1=
0<
#165000
1!
19
#170000
0!
09
0d
1c
0J
1I
1<
0:
#175000
1!
19
#180000
0!
09
0e
1d
1:
#185000
1!
19
#190000
0!
09
1e
0=
#195000
1!
19
#200000
0!
09
0c
1>
1=
0<
#205000
1!
19
#210000
0!
09
0d
1c
1J
0C
1<
0:
#215000
1!
19
#220000
0!
09
0e
1d
0Z
0D
1:
#225000
1!
19
0m
#230000
0!
09
1e
0E
01
0*
0=
#235000
1!
19
#240000
0!
09
0c
1A
0@
0?
0>
1=
0<
#245000
1!
19
#250000
0!
09
0d
1c
0J
0I
0H
1G
1<
0:
#255000
1!
19
#260000
0!
09
0e
1d
1:
#265000
1!
19
#270000
0!
09
1e
0=
#275000
1!
19
#280000
0!
09
0c
1>
1=
0<
#285000
1!
19
#290000
0!
09
0d
1c
1J
1<
0:
#295000
1!
19
#300000
0!
09
0e
1d
1:
#305000
1!
19
#310000
0!
09
1e
0=
#315000
1!
19
#320000
0!
09
0c
1?
0>
1=
0<
#325000
1!
19
#330000
0!
09
0d
1c
0J
1I
1<
0:
#335000
1!
19
#340000
0!
09
0e
1d
1:
#345000
1!
19
#350000
0!
09
1e
0=
#355000
1!
19
#360000
0!
09
0c
1>
1=
0<
#365000
1!
19
#370000
0!
09
0d
1c
1J
1<
0:
#375000
1!
19
#380000
0!
09
0e
1d
1:
#385000
1!
19
#390000
0!
09
1e
0=
#395000
1!
19
#400000
0!
09
0c
1@
0?
0>
1=
0<
#405000
1!
19
#410000
0!
09
0d
1c
0J
0I
1H
1<
0:
#415000
1!
19
#420000
0!
09
0e
1d
1:
#425000
1!
19
#430000
0!
09
1e
0=
#435000
1!
19
#440000
0!
09
0c
1>
1=
0<
#445000
1!
19
#450000
0!
09
0d
1c
1J
1<
0:
#455000
1!
19
#460000
0!
09
0e
1d
1:
#465000
1!
19
#470000
0!
09
1e
0=
#475000
1!
19
#480000
0!
09
0c
1?
0>
1=
0<
#485000
1!
19
#490000
0!
09
0d
1c
0J
1I
1<
0:
#495000
1!
19
#500000
0!
09
0e
1d
1:
#505000
1!
19
#510000
0!
09
1e
0=
#515000
1!
19
#520000
0!
09
0c
1>
1=
0<
#525000
1!
19
#530000
0!
09
0d
1c
1J
1<
0:
#535000
1!
19
#540000
0!
09
0e
1d
1:
#545000
1!
19
#550000
0!
09
1e
0=
#555000
1!
19
#560000
0!
09
0c
1B
0A
0@
0?
0>
1=
0<
#565000
1!
19
#570000
0!
09
0d
1c
0J
0I
0H
0G
1F
1<
0:
#575000
1!
19
#580000
0!
09
0e
1d
1:
#585000
1!
19
#590000
0!
09
1e
0=
#595000
1!
19
#600000
0!
09
0c
1>
1=
0<
#605000
1!
19
#610000
0!
09
0d
1c
1J
1<
0:
#615000
1!
19
#620000
0!
09
0e
1d
1:
#625000
1!
19
#630000
0!
09
1e
0=
#635000
1!
19
#640000
0!
09
0c
1?
0>
1=
0<
#645000
1!
19
#650000
0!
09
0d
1c
0J
1I
1<
0:
#655000
1!
19
#660000
0!
09
0e
1d
1:
#665000
1!
19
#670000
0!
09
1e
0=
#675000
1!
19
#680000
0!
09
0c
1>
1=
0<
#685000
1!
19
#690000
0!
09
0d
1c
1J
1<
0:
#695000
1!
19
#700000
0!
09
0e
1d
1:
#705000
1!
19
#710000
0!
09
1e
0=
#715000
1!
19
#720000
0!
09
0c
1@
0?
0>
1=
0<
#725000
1!
19
#730000
0!
09
0d
1c
0J
0I
1H
1<
0:
#735000
1!
19
#740000
0!
09
0e
1d
1:
#745000
1!
19
#750000
0!
09
1e
0=
#755000
1!
19
#760000
0!
09
0c
1>
1=
0<
#765000
1!
19
#770000
0!
09
0d
1c
1J
1<
0:
#775000
1!
19
#780000
0!
09
0e
1d
1:
#785000
1!
19
#790000
0!
09
1e
0=
#795000
1!
19
#800000
0!
09
0c
1?
0>
1=
0<
#805000
1!
19
#810000
0!
09
0d
1c
0J
1I
1<
0:
#815000
1!
19
#820000
0!
09
0e
1d
1:
#825000
1!
19
#830000
0!
09
1e
0=
#835000
1!
19
#840000
0!
09
0c
1>
1=
0<
#845000
1!
19
#850000
0!
09
0d
1c
1J
1<
0:
#855000
1!
19
#860000
0!
09
0e
1d
1:
#865000
1!
19
#870000
0!
09
1e
0=
#875000
1!
19
#880000
0!
09
0c
1A
0@
0?
0>
1=
0<
#885000
1!
19
#890000
0!
09
0d
1c
0J
0I
0H
1G
1<
0:
#895000
1!
19
#900000
0!
09
0e
1d
1:
#905000
1!
19
#910000
0!
09
1e
0=
#915000
1!
19
#920000
0!
09
0c
1>
1=
0<
#925000
1!
19
#930000
0!
09
0d
1c
1J
1<
0:
#935000
1!
19
#940000
0!
09
0e
1d
1:
#945000
1!
19
#950000
0!
09
1e
0=
#955000
1!
19
#960000
0!
09
0c
1?
0>
1=
0<
#965000
1!
19
#970000
0!
09
0d
1c
0J
1I
1<
0:
#975000
1!
19
#980000
0!
09
0e
1d
1:
#985000
1!
19
#990000
0!
09
1e
0=
#995000
1!
19
