simulation/qsim/nibble.msim.vcd
$comment
	File created using the following command:
		vcd file nibble.msim.vcd -direction
$end
$date
	Thu Nov 17 22:06:25 2016
$end
$version
	ModelSim Version 10.4d
$end
$timescale
	1ps
$end

$scope module Central_vlg_vec_tst $end
$var reg 3 ! OP [2:0] $end
$var reg 1 " clk $end
$var reg 1 # reset $end
$var wire 1 $ ENA_1 $end
$var wire 1 % ENA_2 $end
$var wire 1 & mux_X $end
$var wire 1 ' mux_Y $end
$var wire 1 ( out [2] $end
$var wire 1 ) out [1] $end
$var wire 1 * out [0] $end
$var wire 1 + out_we $end

$scope module i1 $end
$var wire 1 , gnd $end
$var wire 1 - vcc $end
$var wire 1 . unknown $end
$var tri1 1 / devclrn $end
$var tri1 1 0 devpor $end
$var tri1 1 1 devoe $end
$var wire 1 2 OP[1]~input_o $end
$var wire 1 3 OP[2]~input_o $end
$var wire 1 4 mux_X~output_o $end
$var wire 1 5 ENA_1~output_o $end
$var wire 1 6 mux_Y~output_o $end
$var wire 1 7 ENA_2~output_o $end
$var wire 1 8 out_we~output_o $end
$var wire 1 9 out[0]~output_o $end
$var wire 1 : out[1]~output_o $end
$var wire 1 ; out[2]~output_o $end
$var wire 1 < clk~input_o $end
$var wire 1 = reset~input_o $end
$var wire 1 > state.S0~q $end
$var wire 1 ? state.S1~0_combout $end
$var wire 1 @ state.S1~q $end
$var wire 1 A state.S2~q $end
$var wire 1 B OP[0]~input_o $end
$var wire 1 C Selector0~0_combout $end
$var wire 1 D state.S5~q $end
$var wire 1 E state.S6~q $end
$var wire 1 F state.S7~q $end
$var wire 1 G nextstate~1_combout $end
$var wire 1 H state.S3~q $end
$var wire 1 I nextstate.S4~0_combout $end
$var wire 1 J state.S4~q $end
$var wire 1 K WideOr2~combout $end
$var wire 1 L WideOr1~combout $end
$var wire 1 M WideOr0~combout $end
$upscope $end
$upscope $end
$enddefinitions $end
#0
$dumpvars
b1 !
0"
1#
0$
0%
0&
0'
0*
0)
0(
0+
0,
1-
x.
1/
10
11
02
03
04
05
06
07
08
09
0:
0;
0<
1=
0>
1?
0@
0A
1B
0C
0D
0E
0F
0G
0H
0I
0J
1K
1L
1M
$end
#5000
1"
1<
#10000
0"
0<
#15000
1"
1<
#20000
0"
0<
#25000
1"
1<
#30000
0"
0<
#35000
1"
1<
#40000
0"
0<
#45000
1"
1<
#50000
0"
0<
#55000
1"
1<
#60000
0#
0"
0=
0<
#65000
1"
1<
#70000
0"
0<
1>
1@
0K
0?
19
1*
#75000
1"
1<
#80000
0"
0<
1A
0@
1K
0L
1G
1:
09
0*
1)
#85000
1"
1<
#90000
0"
0<
0A
1H
0K
1I
0G
19
1*
#95000
1"
1<
#100000
0"
0<
0H
1J
1L
1K
0M
1C
0I
1;
09
0:
0)
0*
1(
#105000
1"
1<
#110000
0"
0<
0J
1D
0K
0C
19
1*
#115000
1"
1<
#120000
0"
0<
0D
1E
1K
0L
1:
09
0*
1)
#125000
1"
1<
#130000
0"
0<
1F
0E
0K
1G
19
1*
#135000
1"
1<
#140000
0"
0<
0F
1H
1M
1I
0G
0;
0(
#145000
1"
1<
#150000
0"
0<
0H
1J
1L
1K
0M
1C
0I
1;
09
0:
0)
0*
1(
#155000
1"
1<
#160000
0"
0<
0J
1D
0K
0C
19
1*
#165000
1"
1<
#170000
0"
0<
0D
1E
1K
0L
1:
09
0*
1)
#175000
1"
1<
#180000
0"
0<
1F
0E
0K
1G
19
1*
#185000
1"
1<
#190000
0"
0<
0F
1H
1M
1I
0G
0;
0(
#195000
1"
1<
#200000
0"
0<
0H
1J
1L
1K
0M
1C
0I
1;
09
0:
0)
0*
1(
#205000
1"
1<
#210000
0"
0<
0J
1D
0K
0C
19
1*
#215000
1"
1<
#220000
0"
0<
0D
1E
1K
0L
1:
09
0*
1)
#225000
1"
1<
#230000
0"
0<
1F
0E
0K
1G
19
1*
#235000
1"
1<
#240000
0"
0<
0F
1H
1M
1I
0G
0;
0(
#245000
1"
1<
#250000
0"
0<
0H
1J
1L
1K
0M
1C
0I
1;
09
0:
0)
0*
1(
#255000
1"
1<
#260000
0"
0<
0J
1D
0K
0C
19
1*
#265000
1"
1<
#270000
0"
0<
0D
1E
1K
0L
1:
09
0*
1)
#275000
1"
1<
#280000
0"
0<
1F
0E
0K
1G
19
1*
#285000
1"
1<
#290000
0"
0<
0F
1H
1M
1I
0G
0;
0(
#295000
1"
1<
#300000
0"
0<
0H
1J
1L
1K
0M
1C
0I
1;
09
0:
0)
0*
1(
#305000
1"
1<
#310000
0"
0<
0J
1D
0K
0C
19
1*
#315000
1"
1<
#320000
0"
0<
0D
1E
1K
0L
1:
09
0*
1)
#325000
1"
1<
#330000
0"
0<
1F
0E
0K
1G
19
1*
#335000
1"
1<
#340000
0"
0<
0F
1H
1M
1I
0G
0;
0(
#345000
1"
1<
#350000
0"
0<
0H
1J
1L
1K
0M
1C
0I
1;
09
0:
0)
0*
1(
#355000
1"
1<
#360000
0"
0<
0J
1D
0K
0C
19
1*
#365000
1"
1<
#370000
0"
0<
0D
1E
1K
0L
1:
09
0*
1)
#375000
1"
1<
#380000
0"
0<
1F
0E
0K
1G
19
1*
#385000
1"
1<
#390000
0"
0<
0F
1H
1M
1I
0G
0;
0(
#395000
1"
1<
#400000
0"
0<
0H
1J
1L
1K
0M
1C
0I
1;
09
0:
0)
0*
1(
#405000
1"
1<
#410000
0"
0<
0J
1D
0K
0C
19
1*
#415000
1"
1<
#420000
0"
0<
0D
1E
1K
0L
1:
09
0*
1)
#425000
1"
1<
#430000
0"
0<
1F
0E
0K
1G
19
1*
#435000
1"
1<
#440000
0"
0<
0F
1H
1M
1I
0G
0;
0(
#445000
1"
1<
#450000
0"
0<
0H
1J
1L
1K
0M
1C
0I
1;
09
0:
0)
0*
1(
#455000
1"
1<
#460000
0"
0<
0J
1D
0K
0C
19
1*
#465000
1"
1<
#470000
0"
0<
0D
1E
1K
0L
1:
09
0*
1)
#475000
1"
1<
#480000
0"
0<
1F
0E
0K
1G
19
1*
#485000
1"
1<
#490000
0"
0<
0F
1H
1M
1I
0G
0;
0(
#495000
1"
1<
#500000
0"
0<
0H
1J
1L
1K
0M
1C
0I
1;
09
0:
0)
0*
1(
#505000
1"
1<
#510000
0"
0<
0J
1D
0K
0C
19
1*
#515000
1"
1<
#520000
0"
0<
0D
1E
1K
0L
1:
09
0*
1)
#525000
1"
1<
#530000
0"
0<
1F
0E
0K
1G
19
1*
#535000
1"
1<
#540000
0"
0<
0F
1H
1M
1I
0G
0;
0(
#545000
1"
1<
#550000
0"
0<
0H
1J
1L
1K
0M
1C
0I
1;
09
0:
0)
0*
1(
#555000
1"
1<
#560000
0"
0<
0J
1D
0K
0C
19
1*
#565000
1"
1<
#570000
0"
0<
0D
1E
1K
0L
1:
09
0*
1)
#575000
1"
1<
#580000
0"
0<
1F
0E
0K
1G
19
1*
#585000
1"
1<
#590000
0"
0<
0F
1H
1M
1I
0G
0;
0(
#595000
1"
1<
#600000
0"
0<
0H
1J
1L
1K
0M
1C
0I
1;
09
0:
0)
0*
1(
#605000
1"
1<
#610000
0"
0<
0J
1D
0K
0C
19
1*
#615000
1"
1<
#620000
0"
0<
0D
1E
1K
0L
1:
09
0*
1)
#625000
1"
1<
#630000
0"
0<
1F
0E
0K
1G
19
1*
#635000
1"
1<
#640000
0"
0<
0F
1H
1M
1I
0G
0;
0(
#645000
1"
1<
#650000
0"
0<
0H
1J
1L
1K
0M
1C
0I
1;
09
0:
0)
0*
1(
#655000
1"
1<
#660000
0"
0<
0J
1D
0K
0C
19
1*
#665000
1"
1<
#670000
0"
0<
0D
1E
1K
0L
1:
09
0*
1)
#675000
1"
1<
#680000
0"
0<
1F
0E
0K
1G
19
1*
#685000
1"
1<
#690000
0"
0<
0F
1H
1M
1I
0G
0;
0(
#695000
1"
1<
#700000
0"
0<
0H
1J
1L
1K
0M
1C
0I
1;
09
0:
0)
0*
1(
#705000
1"
1<
#710000
0"
0<
0J
1D
0K
0C
19
1*
#715000
1"
1<
#720000
0"
0<
0D
1E
1K
0L
1:
09
0*
1)
#725000
1"
1<
#730000
0"
0<
1F
0E
0K
1G
19
1*
#735000
1"
1<
#740000
0"
0<
0F
1H
1M
1I
0G
0;
0(
#745000
1"
1<
#750000
0"
0<
0H
1J
1L
1K
0M
1C
0I
1;
09
0:
0)
0*
1(
#755000
1"
1<
#760000
0"
0<
0J
1D
0K
0C
19
1*
#765000
1"
1<
#770000
0"
0<
0D
1E
1K
0L
1:
09
0*
1)
#775000
1"
1<
#780000
0"
0<
1F
0E
0K
1G
19
1*
#785000
1"
1<
#790000
0"
0<
0F
1H
1M
1I
0G
0;
0(
#795000
1"
1<
#800000
0"
0<
0H
1J
1L
1K
0M
1C
0I
1;
09
0:
0)
0*
1(
#805000
1"
1<
#810000
0"
0<
0J
1D
0K
0C
19
1*
#815000
1"
1<
#820000
0"
0<
0D
1E
1K
0L
1:
09
0*
1)
#825000
1"
1<
#830000
0"
0<
1F
0E
0K
1G
19
1*
#835000
1"
1<
#840000
0"
0<
0F
1H
1M
1I
0G
0;
0(
#845000
1"
1<
#850000
0"
0<
0H
1J
1L
1K
0M
1C
0I
1;
09
0:
0)
0*
1(
#855000
1"
1<
#860000
0"
0<
0J
1D
0K
0C
19
1*
#865000
1"
1<
#870000
0"
0<
0D
1E
1K
0L
1:
09
0*
1)
#875000
1"
1<
#880000
0"
0<
1F
0E
0K
1G
19
1*
#885000
1"
1<
#890000
0"
0<
0F
1H
1M
1I
0G
0;
0(
#895000
1"
1<
#900000
0"
0<
0H
1J
1L
1K
0M
1C
0I
1;
09
0:
0)
0*
1(
#905000
1"
1<
#910000
0"
0<
0J
1D
0K
0C
19
1*
#915000
1"
1<
#920000
0"
0<
0D
1E
1K
0L
1:
09
0*
1)
#925000
1"
1<
#930000
0"
0<
1F
0E
0K
1G
19
1*
#935000
1"
1<
#940000
0"
0<
0F
1H
1M
1I
0G
0;
0(
#945000
1"
1<
#950000
0"
0<
0H
1J
1L
1K
0M
1C
0I
1;
09
0:
0)
0*
1(
#955000
1"
1<
#960000
0"
0<
0J
1D
0K
0C
19
1*
#965000
1"
1<
#970000
0"
0<
0D
1E
1K
0L
1:
09
0*
1)
#975000
1"
1<
#980000
0"
0<
1F
0E
0K
1G
19
1*
#985000
1"
1<
#990000
0"
0<
0F
1H
1M
1I
0G
0;
0(
#995000
1"
1<
